{
  "images" : [
    {
      "idiom" : "mac",
      "filename" : "unlock~mac@1x.png",
      "scale" : "1x"
    },
    {
      "filename" : "unlock~mac@2x.png",
      "idiom" : "mac",
      "scale" : "2x"
    }
  ],
  "info" : {
    "author" : "xcode",
    "version" : 1
  }
}